{
    "success": 1,
    "song_requests": [{
                      "SongRequestId": "1",
                      "SongId": "1",
                      "SongName": "W&W & Hardwell & Lil Jon - Live The Night (Extended Mix)",
                      "SongArtistName": "Hardwell, W&W, Lil Jon",
                      "SongType": "Alternative",
                      "SongRequestTime": "24/04/2017 5:00 PM",
                      "IsSongRequestVIP": "1",
                      "SongRequestStatus": "Paid",
                      "SongRequestAmount": "$5.20"
                      }, {
                      "SongRequestId": "2",
                      "SongId": "2",
                      "SongName": "Hardwell - Spaceman (Original Mix)",
                      "SongArtistName": "Hardwell",
                      "SongType": "Anime",
                      "SongRequestTime": "24/04/2017 5:30 PM",
                      "IsSongRequestVIP": "0",
                      "SongRequestStatus": "Paid",
                      "SongRequestAmount": "$5.20"
                      }],
    "shoutout_requests": [{
                          "ShoutoutRequestId": "1",
                          "ShoutoutOccasion": "Birthday Celebration",
                          "ShoutoutForWhom": "Smith Johnson",
                          "ShoutoutNoteComments": "It is his 16th birthday.",
                          "ShoutoutRequestTime": "24/04/2017 5:00 PM",
                          "IsShoutoutRequestVIP": "1",
                          "ShoutoutRequestStatus": "Paid",
                          "ShoutoutRequestAmount": "$5.20"
                          }, {
                          "ShoutoutRequestId": "2",
                          "ShoutoutOccasion": "Birthday Celebration",
                          "ShoutoutForWhom": "Smith Johnson",
                          "ShoutoutNoteComments": "It is his 16th birthday.",
                          "ShoutoutRequestTime": "24/04/2017 5:30 PM",
                          "IsShoutoutRequestVIP": "0",
                          "ShoutoutRequestStatus": "Paid",
                          "ShoutoutRequestAmount": "$5.20"
                          }]
}
