{
    "success": 1,
    "club_owner_djs_online_requests": [{
                                "DjId": "2",
                                "DjName": "Avicii",
                                "DjProfilePictureImageUrl": "uploads/dj_images/default_dj.jpg"
                                }]
}
