{
    "success": 1,
    "club_owner_online_djs": [{
                                "DjId": "1",
                                "DjName": "Hardwell",
                                "DjProfilePictureImageUrl": "uploads/dj_images/default_dj.jpg"
                                }]
}
